{
    "CoreSys": {
      "dbConfig": {
          "host"  : "localhost",
          "port"  : 3306,
          "dbName": "btn_loyalty_program",
          "user"  : "root",
          "pass"  : "!@#Btn123"
      },
      "dbConfig2": {
          "host"  : "localhost",
          "port"  : 3306,
          "dbName": "btn_loyalty_member",
          "user"  : "root",
          "pass"  : "!@#Btn123"
      },
      "dbConfig3": {
        "host"  : "localhost",
        "port"  : 3306,
        "dbName": "btn_raw",
        "user"  : "root",
        "pass"  : "!@#Btn123"
      },
      "etc": {
        "port"            : 8081,
        "portMember"      : 8076,
        "portLog"         : 8077,
        "portExchange"    : 8078,
        "portRedeem"      : 8079,
        "portSoap"        : 8000,
        "edw_uri"         : "http://172.16.3.198:9099/svc/cekhpsms" 
      },
      "cronSchedule": {
        "raw"           : "15 5 * * *",
        "balance"       : "30 6 1 * *",
        "spEvent"       : "10 6 * * *",
        "dobEvent"      : "55 5 * * *", 
        "expire"        : "45 6 * * *",
        "giift"         : "15 0 10 9 *",
        "burn_point"    : "10 0 * * *",
        "reset_fail_otp": "5 0 * * *",
        "tiap_semenit"  : "* * * * *",
        "tiap_3menit"   : "*/3 * * * *",
        "tiap_bulan"    : "11 18 * * *"
      },
      "giift": {
        "base_uri"      : "https://sandbox.giift.com/",
        "client_id"     : "btn",
        "client_secret" : "655927c2f87b53eb7ba0fe1986808620248c767b",
        "program_id"    : "1547437062Rgg77"
      },
      "mailServer": {
        "host": "172.15.11.82",
        "port": 587,
        "user": "poinserbu@btn.co.id",
        "pass": "Batara1234"
      }
    }
  }
  
