{
  "CoreSys": {
    "dbConfig": {
        "host"  : "localhost",
        "port"  : 3306,
        "dbName": "btn_loyalty_program",
        "user"  : "root",
        "pass"  : "!@#Btn123"
    },
    "dbConfig2": {
        "host"  : "localhost",
        "port"  : 3306,
        "dbName": "btn_loyalty_member",
        "user"  : "root",
        "pass"  : "!@#Btn123"
    },
    "dbConfig3": {
      "host"  : "localhost",
      "port"  : 3306,
      "dbName": "btn_raw",
      "user"  : "root",
      "pass"  : "!@#Btn123"
  },
    "etc": {
      "port"            : 8081,
      "portMember"      : 8076,
      "portLog"         : 8077,
      "portExchange"    : 8078,
      "portRedeem"      : 8079
    }
  }
}

